…
```
[1] "flights"
```

```r
flights_tbl %>% filter(dep_delay == 2)
```

```
Source:   query [6,233 x 19]
Database: spark connection master=local[4] app=sparklyr local=TRUE

    year month   day dep_time sched_dep_time dep_delay arr_time
   <int> <int> <int>    <int>          <int>     <dbl>    <int>
1   2013     1     1      517            515         2      830
2   2013     1     1      542            540         2      923
3   2013     1     1      702            700         2     1058
4   2013     1     1      715            713         2      911
5   2013     1     1      752            750         2     1025
6   2013     1     1      917            915         2     1206
7   2013     1     1      932            930         2     1219
8   2013     1     1     1028           1026         2     1350
9   2013     1     1     1042           1040         2     1325
10  2013     1     1     1231           1229         2     1523
# ... with 6,223 more rows, and 12 more variables: sched_arr_time <int>,
#   arr_delay <dbl>, carrier <chr>, flight <int>, tailnum <chr>,
#   origin <chr>, dest <chr>, air_time <dbl>, distance <dbl>, hour <dbl>,
#   minute <dbl>, time_hour <dbl>
```
…
