…
``` r
#View(opendata10612M010)

combined_data<-inner_join(education_Level,demographic_Data,by=c("區域別","村里名稱" = "村里"))

combined_data[order(combined_data$出生數/combined_data$總計, decreasing = T),]
```

    ## # A tibble: 7,851 x 60
    ##    統計年  區域別代碼       區域別 村里名稱  總計 博畢_男 博畢_女 博肄_男
    ##     <int>       <dbl>        <chr>    <chr> <int>   <int>   <int>   <int>
    ##  1    106 10016030003 澎湖縣白沙鄉   城前村   111       0       0       1
    ##  2    106 10014120002 臺東縣海端鄉   霧鹿村   275       0       0       0
    ##  3    106 68000130007 桃園市復興區   奎輝里   696       0       0       1
    ##  4    106 10002120004 宜蘭縣南澳鄉   金岳村   427       0       0       0
    ##  5    106 10016010034 澎湖縣馬公市   桶盤里   297       0       0       0
    ##  6    106 10008120012 南投縣信義鄉   雙龍村   641       0       0       0
    ##  7    106 10016030007 澎湖縣白沙鄉   小赤村   166       0       1       1
    ##  8    106 10015120004 花蓮縣萬榮鄉   明利村   686       0       0       0
    ##  9    106 10002110005 宜蘭縣大同鄉   英士村   344       0       0       0
    ## 10    106 10009180010 雲林縣四湖鄉   三姓村   373       1       0       0
    ## # ... with 7,841 more rows, and 52 more variables: 博肄_女 <int>,
    ## #   碩畢_男 <int>, 碩畢_女 <int>, 碩肄_男 <int>, 碩肄_女 <int>,
    ## #   大畢_男 <int>, 大畢_女 <int>, 大肄_男 <int>, 大肄_女 <int>,
    ## #   二畢_男 <int>, 二畢_女 <int>, 二肄_男 <int>, 二肄_女 <int>,
    ## #   後二畢_男 <int>, 後二畢_女 <int>, 後二肄_男 <int>, 後二肄_女 <int>,
    ## #   高畢_男 <int>, 高畢_女 <int>, 高肄_男 <int>, 高肄_女 <int>,
    ## #   職畢_男 <int>, 職畢_女 <int>, 職肄_男 <int>, 職肄_女 <int>,
    ## #   前三肄_男 <int>, 前三肄_女 <int>, 國畢_男 <int>, 國畢_女 <int>,
    ## #   國肄_男 <int>, 國肄_女 <int>, 初畢_男 <int>, 初畢_女 <int>,
…
