…
### 解答

-   用`arrange`將資料表的得分數降冪排序後，以隊伍分組後，再以`slice`取第一筆資料

``` r
library(SportsAnalytics)
NBA1617<-fetch_NBAPlayerStatistics("16-17")
NBA1617%>%
arrange(desc(TotalPoints))%>%
  group_by(Team)%>%
  slice(1)
```

    ## # A tibble: 31 x 25
    ## # Groups:   Team [31]
    ##    League            Name   Team Position GamesPlayed TotalMinutesPlayed
    ##    <fctr>           <chr> <fctr>   <fctr>       <int>              <int>
    ##  1    NBA Dennis Schroder    ATL       PG          79               2488
    ##  2    NBA   Isaiah Thomas    BOS       PG          76               2571
    ##  3    NBA     Brook Lopez    BRO        C          75               2223
    ##  4    NBA    Kemba Walker    CHA       PG          79               2743
    ##  5    NBA    Jimmy Butler    CHI       SG          76               2806
    ##  6    NBA    Lebron James    CLE       SF          74               2793
    ##  7    NBA Harrison Barnes    DAL       SF          79               2805
    ##  8    NBA    Nikola Jokic    DEN        C          73               2032
    ##  9    NBA   Tobias Harris    DET       SF          82               2566
    ## 10    NBA   Stephen Curry    GSW       PG          79               2636
    ## # ... with 21 more rows, and 19 more variables: FieldGoalsMade <int>,
    ## #   FieldGoalsAttempted <int>, ThreesMade <int>, ThreesAttempted <int>,
    ## #   FreeThrowsMade <int>, FreeThrowsAttempted <int>,
    ## #   OffensiveRebounds <int>, TotalRebounds <int>, Assists <int>,
    ## #   Steals <int>, Turnovers <int>, Blocks <int>, PersonalFouls <int>,
    ## #   Disqualifications <int>, TotalPoints <int>, Technicals <int>,
    ## #   Ejections <int>, FlagrantFouls <int>, GamesStarted <int>
…
